FPGA/counter_disc.vcd
$date
	Thu Dec  9 11:48:38 2021
$end
$version
	Icarus Verilog
$end
$timescale
	1ps
$end
$scope module counter_disc_test $end
$var wire 16 ! count_disc4 [15:0] $end
$var wire 16 " count_disc3 [15:0] $end
$var wire 16 # count_disc2 [15:0] $end
$var wire 16 $ count_disc1 [15:0] $end
$var reg 1 % clk $end
$var reg 1 & disc1 $end
$var reg 1 ' disc2 $end
$var reg 1 ( disc3 $end
$var reg 1 ) disc4 $end
$var reg 1 * rst $end
$var reg 1 + we $end
$scope module dut $end
$var wire 1 % clk $end
$var wire 1 & disc1 $end
$var wire 1 ' disc2 $end
$var wire 1 ( disc3 $end
$var wire 1 ) disc4 $end
$var wire 1 * rst $end
$var wire 1 + we $end
$var reg 16 , count_disc1 [15:0] $end
$var reg 16 - count_disc2 [15:0] $end
$var reg 16 . count_disc3 [15:0] $end
$var reg 16 / count_disc4 [15:0] $end
$upscope $end
$upscope $end
$enddefinitions $end
#0
$dumpvars
b0 /
b0 .
b0 -
b0 ,
0+
1*
1)
1(
1'
1&
0%
b0 $
b0 #
b0 "
b0 !
$end
#2500
1%
#5000
0*
1+
0%
#7500
1%
#10000
0%
#12500
1%
#15000
0%
#17500
1%
#20000
0%
#22500
1%
#25000
0%
#27500
1%
#30000
0%
#32500
1%
#35000
0%
#37500
1%
#40000
0%
#42500
1%
#45000
0%
#47500
1%
#50000
0%
#52500
1%
#55000
0%
0&
#57500
b1 $
b1 ,
1%
#60000
0%
#62500
b10 $
b10 ,
1%
#65000
0%
#67500
b11 $
b11 ,
1%
#70000
0%
#72500
b100 $
b100 ,
1%
#75000
0%
#77500
b101 $
b101 ,
1%
#80000
0%
#82500
b110 $
b110 ,
1%
#85000
0%
#87500
b111 $
b111 ,
1%
#90000
0%
#92500
b1000 $
b1000 ,
1%
#95000
0%
#97500
b1001 $
b1001 ,
1%
#100000
0%
#102500
b1010 $
b1010 ,
1%
#105000
0%
#107500
b1011 $
b1011 ,
1%
#110000
0%
#112500
b1100 $
b1100 ,
1%
#115000
0%
#117500
b1101 $
b1101 ,
1%
#120000
0%
#122500
b1110 $
b1110 ,
1%
#125000
0%
#127500
b1111 $
b1111 ,
1%
#130000
0%
#132500
b10000 $
b10000 ,
1%
#135000
0%
#137500
b10001 $
b10001 ,
1%
#140000
0%
#142500
b10010 $
b10010 ,
1%
#145000
0%
#147500
b10011 $
b10011 ,
1%
#150000
0%
#152500
b10100 $
b10100 ,
1%
#155000
0%
1&
#157500
1%
#160000
0%
#162500
1%
#165000
0%
#167500
1%
#170000
0%
#172500
1%
#175000
0%
#177500
1%
#180000
0%
#182500
1%
#185000
0%
#187500
1%
#190000
0%
#192500
1%
#195000
0%
#197500
1%
#200000
0%
#202500
1%
#205000
0%
0'
#207500
b1 #
b1 -
1%
#210000
0%
#212500
b10 #
b10 -
1%
#215000
0%
#217500
b11 #
b11 -
1%
#220000
0%
#222500
b100 #
b100 -
1%
#225000
0%
#227500
b101 #
b101 -
1%
#230000
0%
#232500
b110 #
b110 -
1%
#235000
0%
#237500
b111 #
b111 -
1%
#240000
0%
#242500
b1000 #
b1000 -
1%
#245000
0%
#247500
b1001 #
b1001 -
1%
#250000
0%
#252500
b1010 #
b1010 -
1%
#255000
0%
#257500
b1011 #
b1011 -
1%
#260000
0%
#262500
b1100 #
b1100 -
1%
#265000
0%
#267500
b1101 #
b1101 -
1%
#270000
0%
#272500
b1110 #
b1110 -
1%
#275000
0%
#277500
b1111 #
b1111 -
1%
#280000
0%
#282500
b10000 #
b10000 -
1%
#285000
0%
#287500
b10001 #
b10001 -
1%
#290000
0%
#292500
b10010 #
b10010 -
1%
#295000
0%
#297500
b10011 #
b10011 -
1%
#300000
0%
#302500
b10100 #
b10100 -
1%
#305000
0%
#307500
b10101 #
b10101 -
1%
#310000
0%
#312500
b10110 #
b10110 -
1%
#315000
0%
#317500
b10111 #
b10111 -
1%
#320000
0%
#322500
b11000 #
b11000 -
1%
#325000
0%
#327500
b11001 #
b11001 -
1%
#330000
0%
#332500
b11010 #
b11010 -
1%
#335000
0%
#337500
b11011 #
b11011 -
1%
#340000
0%
#342500
b11100 #
b11100 -
1%
#345000
0%
#347500
b11101 #
b11101 -
1%
#350000
0%
#352500
b11110 #
b11110 -
1%
#355000
0%
1'
#357500
1%
#360000
0%
#362500
1%
#365000
0%
#367500
1%
#370000
0%
#372500
1%
#375000
0%
#377500
1%
#380000
0%
#382500
1%
#385000
0%
#387500
1%
#390000
0%
#392500
1%
#395000
0%
#397500
1%
#400000
0%
#402500
1%
#405000
0%
0(
#407500
b1 "
b1 .
1%
#410000
0%
#412500
b10 "
b10 .
1%
#415000
0%
#417500
b11 "
b11 .
1%
#420000
0%
#422500
b100 "
b100 .
1%
#425000
0%
#427500
b101 "
b101 .
1%
#430000
0%
#432500
b110 "
b110 .
1%
#435000
0%
#437500
b111 "
b111 .
1%
#440000
0%
#442500
b1000 "
b1000 .
1%
#445000
0%
#447500
b1001 "
b1001 .
1%
#450000
0%
#452500
b1010 "
b1010 .
1%
#455000
0%
#457500
b1011 "
b1011 .
1%
#460000
0%
#462500
b1100 "
b1100 .
1%
#465000
0%
#467500
b1101 "
b1101 .
1%
#470000
0%
#472500
b1110 "
b1110 .
1%
#475000
0%
#477500
b1111 "
b1111 .
1%
#480000
0%
#482500
b10000 "
b10000 .
1%
#485000
0%
#487500
b10001 "
b10001 .
1%
#490000
0%
#492500
b10010 "
b10010 .
1%
#495000
0%
#497500
b10011 "
b10011 .
1%
#500000
0%
#502500
b10100 "
b10100 .
1%
#505000
0%
#507500
b10101 "
b10101 .
1%
#510000
0%
#512500
b10110 "
b10110 .
1%
#515000
0%
#517500
b10111 "
b10111 .
1%
#520000
0%
#522500
b11000 "
b11000 .
1%
#525000
0%
#527500
b11001 "
b11001 .
1%
#530000
0%
#532500
b11010 "
b11010 .
1%
#535000
0%
#537500
b11011 "
b11011 .
1%
#540000
0%
#542500
b11100 "
b11100 .
1%
#545000
0%
#547500
b11101 "
b11101 .
1%
#550000
0%
#552500
b11110 "
b11110 .
1%
#555000
0%
#557500
b11111 "
b11111 .
1%
#560000
0%
#562500
b100000 "
b100000 .
1%
#565000
0%
#567500
b100001 "
b100001 .
1%
#570000
0%
#572500
b100010 "
b100010 .
1%
#575000
0%
#577500
b100011 "
b100011 .
1%
#580000
0%
#582500
b100100 "
b100100 .
1%
#585000
0%
#587500
b100101 "
b100101 .
1%
#590000
0%
#592500
b100110 "
b100110 .
1%
#595000
0%
#597500
b100111 "
b100111 .
1%
#600000
0%
#602500
b101000 "
b101000 .
1%
#605000
0%
1(
#607500
1%
#610000
0%
#612500
1%
#615000
0%
#617500
1%
#620000
0%
#622500
1%
#625000
0%
#627500
1%
#630000
0%
#632500
1%
#635000
0%
#637500
1%
#640000
0%
#642500
1%
#645000
0%
#647500
1%
#650000
0%
#652500
1%
#655000
0%
0)
#657500
b1 !
b1 /
1%
#660000
0%
#662500
b10 !
b10 /
1%
#665000
0%
#667500
b11 !
b11 /
1%
#670000
0%
#672500
b100 !
b100 /
1%
#675000
0%
#677500
b101 !
b101 /
1%
#680000
0%
#682500
b110 !
b110 /
1%
#685000
0%
#687500
b111 !
b111 /
1%
#690000
0%
#692500
b1000 !
b1000 /
1%
#695000
0%
#697500
b1001 !
b1001 /
1%
#700000
0%
#702500
b1010 !
b1010 /
1%
#705000
0%
#707500
b1011 !
b1011 /
1%
#710000
0%
#712500
b1100 !
b1100 /
1%
#715000
0%
#717500
b1101 !
b1101 /
1%
#720000
0%
#722500
b1110 !
b1110 /
1%
#725000
0%
#727500
b1111 !
b1111 /
1%
#730000
0%
#732500
b10000 !
b10000 /
1%
#735000
0%
#737500
b10001 !
b10001 /
1%
#740000
0%
#742500
b10010 !
b10010 /
1%
#745000
0%
#747500
b10011 !
b10011 /
1%
#750000
0%
#752500
b10100 !
b10100 /
1%
#755000
0%
#757500
b10101 !
b10101 /
1%
#760000
0%
#762500
b10110 !
b10110 /
1%
#765000
0%
#767500
b10111 !
b10111 /
1%
#770000
0%
#772500
b11000 !
b11000 /
1%
#775000
0%
#777500
b11001 !
b11001 /
1%
#780000
0%
#782500
b11010 !
b11010 /
1%
#785000
0%
#787500
b11011 !
b11011 /
1%
#790000
0%
#792500
b11100 !
b11100 /
1%
#795000
0%
#797500
b11101 !
b11101 /
1%
#800000
0%
#802500
b11110 !
b11110 /
1%
#805000
0%
#807500
b11111 !
b11111 /
1%
#810000
0%
#812500
b100000 !
b100000 /
1%
#815000
0%
#817500
b100001 !
b100001 /
1%
#820000
0%
#822500
b100010 !
b100010 /
1%
#825000
0%
#827500
b100011 !
b100011 /
1%
#830000
0%
#832500
b100100 !
b100100 /
1%
#835000
0%
#837500
b100101 !
b100101 /
1%
#840000
0%
#842500
b100110 !
b100110 /
1%
#845000
0%
#847500
b100111 !
b100111 /
1%
#850000
0%
#852500
b101000 !
b101000 /
1%
#855000
0%
#857500
b101001 !
b101001 /
1%
#860000
0%
#862500
b101010 !
b101010 /
1%
#865000
0%
#867500
b101011 !
b101011 /
1%
#870000
0%
#872500
b101100 !
b101100 /
1%
#875000
0%
#877500
b101101 !
b101101 /
1%
#880000
0%
#882500
b101110 !
b101110 /
1%
#885000
0%
#887500
b101111 !
b101111 /
1%
#890000
0%
#892500
b110000 !
b110000 /
1%
#895000
0%
#897500
b110001 !
b110001 /
1%
#900000
0%
#902500
b110010 !
b110010 /
1%
#905000
0%
1)
